;99;greeN;reye
;100;red;dgs;
124;GREEN;gerg;wwe;
141;GREEN;dfg;gwe;2000;
;575;WHITE; BMW; 3 series; 20wefwe14;ds.3525
;240;WHITE;Ford;Focus;2015; 670000.00
;;silver;FORD;FOCUS;20wt15;540sdg000.00
;241;WHITE;Bmw;GLA;2015;3 43g34300;




